Base de dados de óbitos do Portal da Transparência do Registro Civil
…
        states_monthly_table = by_state_monthly, 
        states_yearly_table = by_state_yearly)
    summary <- list_df %>%
        map(. %>% 
        group_by(Ano, Estado) %>% 
        summarise(Registros = sum(Registros))
        )
    for (i in seq_along(summary)) {
        summary[[i]]$table <- rep(names(summary[i]), nrow(summary[[i]]))
    }
    summary %>% 
        bind_rows %>% 
        pivot_wider(names_from = table, values_from = Registros)

## # A tibble: 162 x 6
## # Groups:   Ano [6]
##      Ano Estado           city_monthly_table cities_yearly_table states_monthly_table states_yearly_table
##    <dbl> <chr>                         <dbl>               <dbl>                <dbl>               <dbl>
##  1  2015 Acre                           2524                2524                 2524                2524
##  2  2015 Alagoas                        7369                7369                 7000                7000
##  3  2015 Amapá                          1978                1991                 1989                1989
##  4  2015 Amazonas                       2481                2656                 2542                2542
##  5  2015 Bahia                         29777               29777                28580               28580
##  6  2015 Ceará                          8597                8597                 8169                8169
##  7  2015 Distrito Federal              13854               13897                13897               13897
##  8  2015 Espírito Santo                22476               22555                22555               22555
##  9  2015 Goiás                         22956               23143                23143               23143
## 10  2015 Maranhão                       2033                2036                 2036                2036
## # … with 152 more rows
…
